1=='1'
true
1==='1'
false
1== 1
true
1=='1 '
true
1=='   1 '
true
23='23px'
VM119:1 Uncaught ReferenceError: Invalid left-hand side in assignment
23=='23px'
false
23>'23aa'
false
23<'23aa'
false
23==Number('23aa')
false
Number('23aa')
NaN
1/0
Infinity
-1/0
-Infinity
typeof(12)
"number"
typeof(String(12))
"string"
typeof(Number('23aa'))
"number"
typeof(NaN)
"number"
'1' + 2
"12"
1 +'2'
"12"
1 + '2'
"12"
